1 10 20
100 200 125
201 210 89
900 1000 174
1 99999 351
99999 1 351
10 1 20
100 200 125
201 210 89
900 1000 174
100 9999 262
9999 100 262
1 20 21
20 20 8
10 10000 262
1 2 2
2 1 2
3 128 119
128 3 119
256 6 128
6 256 128
1024 24 179
24 1024 179
170 1024 179
1024 170 179
168 170 50
168 1024 179
5632 1942 238
7968 8439 234
4203 8149 262
1814 8379 262
2091 6789 262
2569 2624 178
7147 8842 252
3566 5417 238
3685 4494 238
8024 1981 262
8593 2921 262
6408 9691 260
8078 7117 252
8098 6711 257
348 8837 262
8020 4213 262
5618 9083 262
6742 8832 257
4266 9986 262
8783 2253 262
5166 2304 238
4262 6207 262
7318 2172 262
7786 751 262
3669 6774 262
564 8455 262
7941 4462 262
2788 4593 238
4717 8968 262
2899 1245 209
6966 3986 262
3751 1261 238
4366 4596 215
1970 3902 238
643 7394 262
6020 8817 262
8142 8411 234
719 7614 262
7629 2034 262
6010 686 238
4211 9459 262
4889 972 238
9413 6769 260
8042 689 262
9134 3969 262
5435 6041 236
3711 6498 262
9603 6095 262
3829 8036 262
6184 7001 257
6120 6677 262
4770 5331 210
6649 2622 262
9203 1442 262
3708 306 217
8932 8242 234
5685 2616 238
8763 73 262
4446 8108 262
188 3626 217
5673 4095 236
7464 6901 257
3866 8723 262
3013 3585 199
964 7556 262
4402 4013 215
1294 6333 262
459 8735 262
5688 3760 236
3989 6297 262
9994 3273 262
2855 1464 209
5676 8984 262
6869 1916 262
2811 811 209
1208 8365 262
8224 9274 260
1967 273 182
2478 1446 209
6092 8534 262

