....................
----------------------------------------------------------------------
Ran 20 tests in 0.999s

OK
Name             Stmts   Miss Branch BrPart  Cover   Missing
------------------------------------------------------------
Collatz.py          45      0     14      0   100%
TestCollatz.py      88      0      2      0   100%
------------------------------------------------------------
TOTAL              133      0     16      0   100%
