....................
----------------------------------------------------------------------
Ran 20 tests in 0.816s

OK
Name             Stmts   Miss Branch BrPart  Cover   Missing
------------------------------------------------------------
Collatz.py          33      1     12      1    96%   44
TestCollatz.py      87      0      2      0   100%
------------------------------------------------------------
TOTAL              120      1     14      1    99%
