.......................
----------------------------------------------------------------------
Ran 23 tests in 0.012s

OK
Name             Stmts   Miss Branch BrPart  Cover   Missing
------------------------------------------------------------
Collatz.py          33      0     12      0   100%
TestCollatz.py     102      0      2      0   100%
------------------------------------------------------------
TOTAL              135      0     14      0   100%
