..................
----------------------------------------------------------------------
Ran 18 tests in 0.659s

OK
Name             Stmts   Miss Branch BrPart  Cover   Missing
------------------------------------------------------------
Collatz.py          59      0     34      0   100%
TestCollatz.py      76      0      0      0   100%
------------------------------------------------------------
TOTAL              135      0     34      0   100%
