1 10 20
100 200 125
201 210 89
900 1000 174
828250 828919 313
521651 522393 333
432160 432227 250
52436 52617 340
337164 337298 229
619824 620055 266
738960 739796 424
730950 731391 318
209544 209739 236
860635 861473 326
33865 34704 311
662912 663618 292
480112 480330 263
432271 433062 387
838592 839276 344
905519 906495 445
664576 665480 442
541228 541867 364
276972 277252 252
235119 235518 306
639371 640054 354
57766 57994 229
261166 261803 332
441938 442345 294
848963 849565 313
31586 31969 285
905193 905670 295
467231 468086 413
743509 743638 318
390781 391459 361
715136 715452 305
734654 735108 287
684997 685072 217
395210 396000 312
126410 126815 331
365320 365494 317
570531 571232 297
170462 171031 334
463094 463147 232
133166 134111 313
837220 838181 525
71305 71424 325
346403 346697 348
304819 305538 278
907852 908072 295
196267 197247 298
195735 196538 329
713590 714030 287
769901 770225 331
598798 598930 297
809554 810032 344
920186 919236 432
456371 455660 338
835677 835302 313
358868 358306 348
253051 252210 319
23603 23501 282
818151 817903 282
416300 415871 281
503241 502760 289
662822 662058 261
281651 281648 107
665007 664310 323
202361 201730 311
59333 59070 273
856963 856265 375
164038 163444 321
554251 553541 421
557594 556974 315
903730 903310 264
773677 773529 225
986281 985428 365
546626 545878 284
130169 129794 344
935612 935017 414
52488 52350 203
52488 52488 79
1000 1 179
264419 429308 449
495452 712163 509
239725 538322 470
66664 434223 449
51295 434720 449
91458 225309 386
92783 476485 449
293537 361831 441
287313 624467 470
286560 575807 470
305279 585058 470
391713 680652 509
445286 750716 509
89820 491369 449
486358 764030 509
492007 879194 525
59205 377150 443
416745 638805 509
203257 350604 443
462820 843616 525
381864 394558 436
172872 530388 470
91212 469427 449
329718 615209 470
202884 401192 443
16533 437727 449
117010 558860 470
14485 407960 443
450138 666821 509
406716 840500 525
189769 334853 443
333625 435087 449
318888 329357 384
209560 227749 386
230492 480731 449
452612 532996 470
86073 433165 449
222536 494859 449
339978 660791 509
35465 297979 443
94256 524347 470
345573 515605 470
27699 66167 340
293197 729888 509
466986 853095 525
129049 285675 443
453858 497252 444
474772 847275 525
418233 775816 509
24159 141635 354
14527 386818 443
118505 161396 383
449965 604212 470
42492 454880 449
292857 639510 509
203987 436468 449
86908 407654 443
104131 510623 449
117780 407679 443
456839 470936 444
333270 380675 441
11771 85982 351
446205 675609 509
328882 604939 470
388447 575740 470
482057 807563 509
155209 433145 449
370314 434155 449
41469 93644 351
16562 43847 324
234598 333145 407
83711 143212 375
279284 595702 470
227924 279999 443
389969 654118 509
352081 531433 470
221636 648248 509
157347 437399 449
402367 620157 470
189250 208640 373
438601 754913 509
204328 368623 443
113977 527227 470
76611 453839 449
203370 552876 470
481819 622955 470
314511 678084 509
92507 124517 354
409403 782887 509
208906 645405 509
117390 398629 443
462730 769991 509
245083 682263 509
283295 383027 441
378229 674838 509
50048 324048 443
321795 456764 449
374015 721986 509
261036 566808 470
423483 447971 418