.....................
----------------------------------------------------------------------
Ran 21 tests in 3.016s

OK
Name             Stmts   Miss Branch BrPart  Cover   Missing
------------------------------------------------------------
Collatz.py          33      0     12      0   100%
TestCollatz.py      95      0      2      0   100%
------------------------------------------------------------
TOTAL              128      0     14      0   100%