1 1 1
999999 999999 259
1 10 20
10 1 20
100 200 125
201 210 89
900 1000 174
396 3960 238
397 3970 238
398 3980 238
399 3990 238
400 4000 238
401 4010 238
402 4020 238
403 4030 238
404 4040 238
405 4050 238
406 4060 238
407 4070 238
408 4080 238
409 4090 238
410 4100 238
411 4110 238
412 4120 238
413 4130 238
414 4140 238
415 4150 238
416 4160 238
417 4170 238
418 4180 238
419 4190 238
420 4200 238
421 4210 238
422 4220 238
423 4230 238
424 4240 238
425 4250 238
426 4260 238
427 4270 238
428 4280 238
429 4290 238
430 4300 238
431 4310 238
432 4320 238
433 4330 238
434 4340 238
435 4350 238
436 4360 238
437 4370 238
438 4380 238
439 4390 238
440 4400 238
441 4410 238
442 4420 238
443 4430 238
444 4440 238
445 4450 238
446 4460 238
447 4470 238
448 4480 238
449 4490 238
450 4500 238
451 4510 238
452 4520 238
453 4530 238
454 4540 238
455 4550 238
456 4560 238
457 4570 238
458 4580 238
459 4590 238
460 4600 238
461 4610 238
462 4620 238
463 4630 238
464 4640 238
465 4650 238
466 4660 238
467 4670 238
468 4680 238
469 4690 238
470 4700 238
471 4710 238
472 4720 238
473 4730 238
474 4740 238
475 4750 238
476 4760 238
477 4770 238
478 4780 238
479 4790 238
480 4800 238
481 4810 238
482 4820 238
483 4830 238
484 4840 238
485 4850 238
486 4860 238
487 4870 238
488 4880 238
489 4890 238
490 4900 238
491 4910 238
492 4920 238
493 4930 238
494 4940 238
495 4950 238
496 4960 238
497 4970 238
498 4980 238
499 4990 238
