1 10 20
100 200 125
201 210 89
900 1000 174
10 1 20
999998 999999 259
10 10 7
1500 2000 180
250 430 144
999999 999999 259
12 10 15
1000 999 112
900 12 179
888 8888 262
750 1900 182
129 123 122
111 1029 179
1112 516 179
2001 2002 144
92 90 93
1 50000 324
2020 2344 183
63 69 108
123 126 109
900 800 179
5000 9000 262
9999 100000 351
460 400 134
8546 23048 279
2393 123 183
10930 111 262
124 125 109
1 1 1
2 3 8
5 7 17
144 124 122
1241 443 182
12 914 179
343 495 142
5043 5000 179
6004 6008 143
8 11 20
4 4 3
111 123 96
900 88 179
123 223 125
141 89 122
50 49 25
13 16 18
16 19 21
19 21 21
21 24 16
24 27 112
27 30 112
30 33 107
33 36 27
36 39 35
39 42 110
42 45 30
45 48 105
48 51 25
54 57 113
60 63 108
63 66 108
66 69 28
72 92 116
62 102 119
201 301 128
420 690 145
309 399 144
500 570 137
100 10000 262
10 1000 179
1000 100000 351
8000 9000 247
7000 9000 252
6000 9000 262
5000 8000 262
3000 5000 238
2000 10000 262
88888 99999 333
6688 9000 257
50000 55000 340
19291 19293 168
7568 8769 252
100 200 125
45 90 116
90 180 125
180 360 144
360 720 171
8888 40000 324
7000 40000 324
3000 40000 324
123 12312 268
54 54 113
999 12 179
234 45 128
124 144 122
34 54 113
108 109 114
55 511 144
