1 10 20
100 200 125
201 210 89
900 1000 174
687 139 145
91 828 171
796 654 171
620 573 132
263 902 179
24 660 145
738 495 171
80 426 144
545 784 171
92 564 144
971 840 179
76 453 144
221 317 131
602 465 142
715 8 171
481 948 179
603 964 179
588 599 119
86 619 144
335 88 144
411 574 142
328 195 144
584 82 144
598 803 171
867 451 171
255 216 128
5 925 179
619 574 132
200 645 144
878 19 179
569 680 145
690 307 145
709 857 153
110 800 171
2 45 112
647 984 179
174 745 171
917 873 148
50 30 110
399 536 142
507 39 144
778 968 179
150 732 171
795 567 171
762 11 171
244 351 144
938 517 179
719 213 171
762 474 171
682 714 171
699 975 179
60186 6796 340
991 300 179
2506 4190 238
440 708 171
94496 1749 351
490 454 142
82167 6956 351
132 509 144
58161 418 340
849 601 171
38000 4739 324
180 955 179
64224 7808 340
100 418 144
32631 9729 308
752 934 179
5152 5461 192
56 826 171
77567 2653 351
668 24 145
18253 3395 279
852 636 171
30886 1508 308
734 153 171
80793 4568 351
963 528 179
60326 3998 340
45 58 113
83023 9321 351
290 868 171
7703 6790 257
179 850 171
33032 8065 308
662 599 145
3470 7118 262
920 677 179
12762 3664 268
951 525 179
72850 7978 340
40 119 119
8215 33 262
307 953 179
92872 349 351
952 598 179
48317 4467 324
734 675 171
33950 5862 308
480 188 144
9919 7973 260
772 815 153
44119 5423 324
612 152 144
87626 1615 351
87 255 128
31186 1891 308
644 232 144
46275 5852 324
246 995 179
329 6112 238
163 450 144
85696 5786 351
431 268 144
53282 8836 340
381 63 144
28765 3578 308
86 113 119
26406 3941 282
9 419 144
31833 4228 308
166 941 179
6280 9876 260
637 869 171
7533 54 262
203 580 144
66862 431 340
148 909 179
33620 4897 308
451 705 171
37624 222 324
383 155 144
30583 575 308
409 386 121
2649 1198 209
944 406 179
78010 5895 351
401 220 144
99697 9311 351
312 883 179
85960 3606 351
940 412 179
42460 2749 324
437 511 142
80364 8633 351
251 548 144
11338 2946 268
325 259 131
82455 8916 351
100001 999999 525
