.................
----------------------------------------------------------------------
Ran 17 tests in 0.017s

OK
Name             Stmts   Miss Branch BrPart  Cover   Missing
------------------------------------------------------------
Collatz.py          38      0     14      0   100%
TestCollatz.py      72      0      2      0   100%
------------------------------------------------------------
TOTAL              110      0     16      0   100%
