1 10 20
100 200 125
201 210 89
900 1000 174
1 1 1
15 2 20
17 3 20
12222 111 268
2455 55 183
33 33 27
8676 456 262
456 334 134
4564 454 238
65756 345 340
6577 34545 311
57567 56546 304
4533 45654 324
5567 5567 236
4746 2 238
5456 3 238
5465 3 238
134 134 29
212 134 125
34434 33 311
45 44444 324
4353 4656 215
7757 7867 221
74643 9877 340
5645 3456 238
34534 22 311
34645 22 311
6767 22 262
5665 22 238
555 555 31
6666 323 262
565 54645 340
5 53656 340
2 78768 351
1 678 145
2 6788 262
3 4534 238
6 25345 282
8 5767 238
99 4575 238
999 787 179
777 777 34
777 7777 262
7 435 144
55 43546 324
444 346 134
44343 34543 324
3334 43543 324
56 3454 217
45464 34545 324
457 55 144
6464 5534 262
466 4556 238
768 3452 217
688 5633 238
67767 898 340
67 6467 262
6778 33 262
777 33 171
7 33 112
55 55 113
444 46346 324
44343 420 324
3334 69696 340
56 420 144
45464 435 324
457 69 144
6464 69 262
466 69 144
768 664 171
688 6660 262
67767 122 340
67687 3241 340
6678 5846 262
77586 23624 351
64643 668 340
3456 64624 340
34534 67674 340
346 4532 238
34635 6474 311
46757 86857 351
777 999 179
888 808 179
888 49904 324
999 4646 238
77 4757 238
33 34656 311
33 2 112
45 2 112
5555 2 238
132 3 122
80081 32 351
222 44 125
54223 4 340
73 235 128
37 22 112
112 323 131
3333 4444 238
22222 22212 163
90909 87878 333
45342 45 324
6563 878 262
48782 74647 340
16363 641 276
53835 87909 351
900 200 179
200 900 179
8989 43333 324
67574 9011 340
911 420 179
4200 6900 262
6969 78787 351
6247 46894 324
45 82424 351
35 52 110
1 23 21
23 45 112
2001 3004 217
3022 4999 238
7232 32 262
809 908 179
936 37836 324
6789 23211 279
6983 23277 279
2 899 179
998 2756 209
35 6874 262
35753 78574 351
86970 13322 351
3649 8955 262
23524 8758 279
97 76666 340
223 1415 182
1776 4200 238
1420 8889 262
1312 1812 180
1996 2022 144
2002 2020 144
3001 4999 238
4999 5000 91
2000 3000 217
3000 4000 238
4000 5000 215
6000 7111 262
10000 11000 268
12000 13333 276
11777 13000 263
11777 13420 276
2000 5000 238
4000 9000 262
1000 2 179
2 3002 217
99 81 119
22 4 21
1212 144 182
